%!PS-Adobe-3.0 EPSF-3.0
%%Creator: MATLAB, The Mathworks, Inc.
%%Title: converg_Fcycles_032N_edison.eps
%%CreationDate: 02/25/2014  14:14:14
%%DocumentNeededFonts: Helvetica
%%DocumentProcessColors: Cyan Magenta Yellow Black
%%LanguageLevel: 2
%%Pages: 1
%%BoundingBox:    34   191   592   613
%%EndComments

%%BeginProlog
% MathWorks dictionary
/MathWorks 160 dict begin
% definition operators
/bdef {bind def} bind def
/ldef {load def} bind def
/xdef {exch def} bdef
/xstore {exch store} bdef
% operator abbreviations
/c  /clip ldef
/cc /concat ldef
/cp /closepath ldef
/gr /grestore ldef
/gs /gsave ldef
/mt /moveto ldef
/np /newpath ldef
/cm /currentmatrix ldef
/sm /setmatrix ldef
/rm /rmoveto ldef
/rl /rlineto ldef
/s {show newpath} bdef
/sc {setcmykcolor} bdef
/sr /setrgbcolor ldef
/sg /setgray ldef
/w /setlinewidth ldef
/j /setlinejoin ldef
/cap /setlinecap ldef
/rc {rectclip} bdef
/rf {rectfill} bdef
% page state control
/pgsv () def
/bpage {/pgsv save def} bdef
/epage {pgsv restore} bdef
/bplot /gsave ldef
/eplot {stroke grestore} bdef
% orientation switch
/portraitMode 0 def /landscapeMode 1 def /rotateMode 2 def
% coordinate system mappings
/dpi2point 0 def
% font control
/FontSize 0 def
/FMS {/FontSize xstore findfont [FontSize 0 0 FontSize neg 0 0]
  makefont setfont} bdef
/reencode {exch dup where {pop load} {pop StandardEncoding} ifelse
  exch dup 3 1 roll findfont dup length dict begin
  { 1 index /FID ne {def}{pop pop} ifelse } forall
  /Encoding exch def currentdict end definefont pop} bdef
/isroman {findfont /CharStrings get /Agrave known} bdef
/FMSR {3 1 roll 1 index dup isroman {reencode} {pop pop} ifelse
  exch FMS} bdef
/csm {1 dpi2point div -1 dpi2point div scale neg translate
 dup landscapeMode eq {pop -90 rotate}
  {rotateMode eq {90 rotate} if} ifelse} bdef
% line types: solid, dotted, dashed, dotdash
/SO { [] 0 setdash } bdef
/DO { [.5 dpi2point mul 4 dpi2point mul] 0 setdash } bdef
/DA { [6 dpi2point mul] 0 setdash } bdef
/DD { [.5 dpi2point mul 4 dpi2point mul 6 dpi2point mul 4
  dpi2point mul] 0 setdash } bdef
% macros for lines and objects
/L {lineto stroke} bdef
/MP {3 1 roll moveto 1 sub {rlineto} repeat} bdef
/AP {{rlineto} repeat} bdef
/PDlw -1 def
/W {/PDlw currentlinewidth def setlinewidth} def
/PP {closepath eofill} bdef
/DP {closepath stroke} bdef
/MR {4 -2 roll moveto dup  0 exch rlineto exch 0 rlineto
  neg 0 exch rlineto closepath} bdef
/FR {MR stroke} bdef
/PR {MR fill} bdef
/L1i {{currentfile picstr readhexstring pop} image} bdef
/tMatrix matrix def
/MakeOval {newpath tMatrix currentmatrix pop translate scale
0 0 1 0 360 arc tMatrix setmatrix} bdef
/FO {MakeOval stroke} bdef
/PO {MakeOval fill} bdef
/PD {currentlinewidth 2 div 0 360 arc fill
   PDlw -1 eq not {PDlw w /PDlw -1 def} if} def
/FA {newpath tMatrix currentmatrix pop translate scale
  0 0 1 5 -2 roll arc tMatrix setmatrix stroke} bdef
/PA {newpath tMatrix currentmatrix pop	translate 0 0 moveto scale
  0 0 1 5 -2 roll arc closepath tMatrix setmatrix fill} bdef
/FAn {newpath tMatrix currentmatrix pop translate scale
  0 0 1 5 -2 roll arcn tMatrix setmatrix stroke} bdef
/PAn {newpath tMatrix currentmatrix pop translate 0 0 moveto scale
  0 0 1 5 -2 roll arcn closepath tMatrix setmatrix fill} bdef
/vradius 0 def /hradius 0 def /lry 0 def
/lrx 0 def /uly 0 def /ulx 0 def /rad 0 def
/MRR {/vradius xdef /hradius xdef /lry xdef /lrx xdef /uly xdef
  /ulx xdef newpath tMatrix currentmatrix pop ulx hradius add uly
  vradius add translate hradius vradius scale 0 0 1 180 270 arc 
  tMatrix setmatrix lrx hradius sub uly vradius add translate
  hradius vradius scale 0 0 1 270 360 arc tMatrix setmatrix
  lrx hradius sub lry vradius sub translate hradius vradius scale
  0 0 1 0 90 arc tMatrix setmatrix ulx hradius add lry vradius sub
  translate hradius vradius scale 0 0 1 90 180 arc tMatrix setmatrix
  closepath} bdef
/FRR {MRR stroke } bdef
/PRR {MRR fill } bdef
/MlrRR {/lry xdef /lrx xdef /uly xdef /ulx xdef /rad lry uly sub 2 div def
  newpath tMatrix currentmatrix pop ulx rad add uly rad add translate
  rad rad scale 0 0 1 90 270 arc tMatrix setmatrix lrx rad sub lry rad
  sub translate rad rad scale 0 0 1 270 90 arc tMatrix setmatrix
  closepath} bdef
/FlrRR {MlrRR stroke } bdef
/PlrRR {MlrRR fill } bdef
/MtbRR {/lry xdef /lrx xdef /uly xdef /ulx xdef /rad lrx ulx sub 2 div def
  newpath tMatrix currentmatrix pop ulx rad add uly rad add translate
  rad rad scale 0 0 1 180 360 arc tMatrix setmatrix lrx rad sub lry rad
  sub translate rad rad scale 0 0 1 0 180 arc tMatrix setmatrix
  closepath} bdef
/FtbRR {MtbRR stroke } bdef
/PtbRR {MtbRR fill } bdef
/stri 6 array def /dtri 6 array def
/smat 6 array def /dmat 6 array def
/tmat1 6 array def /tmat2 6 array def /dif 3 array def
/asub {/ind2 exch def /ind1 exch def dup dup
  ind1 get exch ind2 get sub exch } bdef
/tri_to_matrix {
  2 0 asub 3 1 asub 4 0 asub 5 1 asub
  dup 0 get exch 1 get 7 -1 roll astore } bdef
/compute_transform {
  dmat dtri tri_to_matrix tmat1 invertmatrix 
  smat stri tri_to_matrix tmat2 concatmatrix } bdef
/ds {stri astore pop} bdef
/dt {dtri astore pop} bdef
/db {2 copy /cols xdef /rows xdef mul dup 3 mul string
  currentfile 
  3 index 0 eq {/ASCIIHexDecode filter}
  {/ASCII85Decode filter 3 index 2 eq {/RunLengthDecode filter} if }
  ifelse exch readstring pop
  dup 0 3 index getinterval /rbmap xdef
  dup 2 index dup getinterval /gbmap xdef
  1 index dup 2 mul exch getinterval /bbmap xdef pop pop}bdef
/it {gs np dtri aload pop moveto lineto lineto cp c
  cols rows 8 compute_transform 
  rbmap gbmap bbmap true 3 colorimage gr}bdef
/il {newpath moveto lineto stroke}bdef
currentdict end def
%%EndProlog

%%BeginSetup
MathWorks begin

0 cap

end
%%EndSetup

%%Page: 1 1
%%BeginPageSetup
%%PageBoundingBox:    34   191   592   613
MathWorks begin
bpage
%%EndPageSetup

%%BeginObject: obj1
bplot

/dpi2point 12 def
portraitMode 0216 7344 csm

  202   -22  6689  5067 rc
86 dict begin %Colortable dictionary
/c0 { 0.000000 0.000000 0.000000 sr} bdef
/c1 { 1.000000 1.000000 1.000000 sr} bdef
/c2 { 0.900000 0.000000 0.000000 sr} bdef
/c3 { 0.000000 0.820000 0.000000 sr} bdef
/c4 { 0.000000 0.000000 0.800000 sr} bdef
/c5 { 0.910000 0.820000 0.320000 sr} bdef
/c6 { 1.000000 0.260000 0.820000 sr} bdef
/c7 { 0.000000 0.820000 0.820000 sr} bdef
c0
1 j
1 sg
   0    0 6913 5186 rf
6 w
0 4227 5356 0 0 -4227 899 4615 4 MP
PP
-5356 0 0 4227 5356 0 0 -4227 899 4615 5 MP stroke
4 w
DO
SO
6 w
0 sg
 899 4615 mt 6255 4615 L
 899  388 mt 6255  388 L
 899 4615 mt  899  388 L
6255 4615 mt 6255  388 L
 899 4615 mt 6255 4615 L
 899 4615 mt  899  388 L
 899 4615 mt  899 4588 L
 899  389 mt  899  415 L
 899 4615 mt  899 4561 L
 899  389 mt  899  442 L
%%IncludeResource: font Helvetica
/Helvetica /ISOLatin1Encoding 168 FMSR

 853 4805 mt 
(2) s
1434 4615 mt 1434 4588 L
1434  389 mt 1434  415 L
1747 4615 mt 1747 4588 L
1747  389 mt 1747  415 L
1970 4615 mt 1970 4588 L
1970  389 mt 1970  415 L
2142 4615 mt 2142 4588 L
2142  389 mt 2142  415 L
2283 4615 mt 2283 4588 L
2283  389 mt 2283  415 L
2402 4615 mt 2402 4588 L
2402  389 mt 2402  415 L
2505 4615 mt 2505 4588 L
2505  389 mt 2505  415 L
2596 4615 mt 2596 4588 L
2596  389 mt 2596  415 L
2678 4615 mt 2678 4588 L
2678  389 mt 2678  415 L
1434 4615 mt 1434 4561 L
1434  389 mt 1434  442 L
1388 4805 mt 
(4) s
1970 4615 mt 1970 4588 L
1970  389 mt 1970  415 L
2283 4615 mt 2283 4588 L
2283  389 mt 2283  415 L
2505 4615 mt 2505 4588 L
2505  389 mt 2505  415 L
2678 4615 mt 2678 4588 L
2678  389 mt 2678  415 L
2819 4615 mt 2819 4588 L
2819  389 mt 2819  415 L
2938 4615 mt 2938 4588 L
2938  389 mt 2938  415 L
3041 4615 mt 3041 4588 L
3041  389 mt 3041  415 L
3132 4615 mt 3132 4588 L
3132  389 mt 3132  415 L
3213 4615 mt 3213 4588 L
3213  389 mt 3213  415 L
1970 4615 mt 1970 4561 L
1970  389 mt 1970  442 L
1924 4805 mt 
(8) s
2505 4615 mt 2505 4588 L
2505  389 mt 2505  415 L
2819 4615 mt 2819 4588 L
2819  389 mt 2819  415 L
3041 4615 mt 3041 4588 L
3041  389 mt 3041  415 L
3213 4615 mt 3213 4588 L
3213  389 mt 3213  415 L
3354 4615 mt 3354 4588 L
3354  389 mt 3354  415 L
3473 4615 mt 3473 4588 L
3473  389 mt 3473  415 L
3576 4615 mt 3576 4588 L
3576  389 mt 3576  415 L
3668 4615 mt 3668 4588 L
3668  389 mt 3668  415 L
3749 4615 mt 3749 4588 L
3749  389 mt 3749  415 L
2505 4615 mt 2505 4561 L
2505  389 mt 2505  442 L
2412 4805 mt 
(16) s
3041 4615 mt 3041 4588 L
3041  389 mt 3041  415 L
3354 4615 mt 3354 4588 L
3354  389 mt 3354  415 L
3577 4615 mt 3577 4588 L
3577  389 mt 3577  415 L
3749 4615 mt 3749 4588 L
3749  389 mt 3749  415 L
3890 4615 mt 3890 4588 L
3890  389 mt 3890  415 L
4009 4615 mt 4009 4588 L
4009  389 mt 4009  415 L
4112 4615 mt 4112 4588 L
4112  389 mt 4112  415 L
4203 4615 mt 4203 4588 L
4203  389 mt 4203  415 L
4285 4615 mt 4285 4588 L
4285  389 mt 4285  415 L
3041 4615 mt 3041 4561 L
3041  389 mt 3041  442 L
2948 4805 mt 
(32) s
3576 4615 mt 3576 4588 L
3576  389 mt 3576  415 L
3890 4615 mt 3890 4588 L
3890  389 mt 3890  415 L
4112 4615 mt 4112 4588 L
4112  389 mt 4112  415 L
4285 4615 mt 4285 4588 L
4285  389 mt 4285  415 L
4425 4615 mt 4425 4588 L
4425  389 mt 4425  415 L
4545 4615 mt 4545 4588 L
4545  389 mt 4545  415 L
4648 4615 mt 4648 4588 L
4648  389 mt 4648  415 L
4739 4615 mt 4739 4588 L
4739  389 mt 4739  415 L
4820 4615 mt 4820 4588 L
4820  389 mt 4820  415 L
3576 4615 mt 3576 4561 L
3576  389 mt 3576  442 L
3483 4805 mt 
(64) s
4112 4615 mt 4112 4588 L
4112  389 mt 4112  415 L
4425 4615 mt 4425 4588 L
4425  389 mt 4425  415 L
4648 4615 mt 4648 4588 L
4648  389 mt 4648  415 L
4820 4615 mt 4820 4588 L
4820  389 mt 4820  415 L
4961 4615 mt 4961 4588 L
4961  389 mt 4961  415 L
5080 4615 mt 5080 4588 L
5080  389 mt 5080  415 L
5183 4615 mt 5183 4588 L
5183  389 mt 5183  415 L
5274 4615 mt 5274 4588 L
5274  389 mt 5274  415 L
5356 4615 mt 5356 4588 L
5356  389 mt 5356  415 L
4112 4615 mt 4112 4561 L
4112  389 mt 4112  442 L
3972 4805 mt 
(128) s
4648 4615 mt 4648 4588 L
4648  389 mt 4648  415 L
4961 4615 mt 4961 4588 L
4961  389 mt 4961  415 L
5183 4615 mt 5183 4588 L
5183  389 mt 5183  415 L
5356 4615 mt 5356 4588 L
5356  389 mt 5356  415 L
5497 4615 mt 5497 4588 L
5497  389 mt 5497  415 L
5616 4615 mt 5616 4588 L
5616  389 mt 5616  415 L
5719 4615 mt 5719 4588 L
5719  389 mt 5719  415 L
5810 4615 mt 5810 4588 L
5810  389 mt 5810  415 L
5891 4615 mt 5891 4588 L
5891  389 mt 5891  415 L
4648 4615 mt 4648 4561 L
4648  389 mt 4648  442 L
4508 4805 mt 
(256) s
5183 4615 mt 5183 4588 L
5183  389 mt 5183  415 L
5497 4615 mt 5497 4588 L
5497  389 mt 5497  415 L
5719 4615 mt 5719 4588 L
5719  389 mt 5719  415 L
5891 4615 mt 5891 4588 L
5891  389 mt 5891  415 L
6032 4615 mt 6032 4588 L
6032  389 mt 6032  415 L
6151 4615 mt 6151 4588 L
6151  389 mt 6151  415 L
6254 4615 mt 6254 4588 L
6254  389 mt 6254  415 L
5183 4615 mt 5183 4561 L
5183  389 mt 5183  442 L
5043 4805 mt 
(512) s
5719 4615 mt 5719 4588 L
5719  389 mt 5719  415 L
6032 4615 mt 6032 4588 L
6032  389 mt 6032  415 L
6254 4615 mt 6254 4588 L
6254  389 mt 6254  415 L
5719 4615 mt 5719 4561 L
5719  389 mt 5719  442 L
5533 4805 mt 
(1024) s
6255 4615 mt 6255 4588 L
6255  389 mt 6255  415 L
6255 4615 mt 6255 4561 L
6255  389 mt 6255  442 L
6069 4805 mt 
(2048) s
 899 4521 mt  925 4521 L
6255 4521 mt 6228 4521 L
 899 4551 mt  925 4551 L
6255 4551 mt 6228 4551 L
 899 4584 mt  925 4584 L
6255 4584 mt 6228 4584 L
 899 4521 mt  952 4521 L
6255 4521 mt 6201 4521 L
 551 4583 mt 
(10) s
%%IncludeResource: font Helvetica
/Helvetica /ISOLatin1Encoding 112 FMSR

 737 4479 mt 
(-6) s
 899 4328 mt  925 4328 L
6255 4328 mt 6228 4328 L
 899 4215 mt  925 4215 L
6255 4215 mt 6228 4215 L
 899 4135 mt  925 4135 L
6255 4135 mt 6228 4135 L
 899 4072 mt  925 4072 L
6255 4072 mt 6228 4072 L
 899 4022 mt  925 4022 L
6255 4022 mt 6228 4022 L
 899 3979 mt  925 3979 L
6255 3979 mt 6228 3979 L
 899 3941 mt  925 3941 L
6255 3941 mt 6228 3941 L
 899 3908 mt  925 3908 L
6255 3908 mt 6228 3908 L
 899 3879 mt  925 3879 L
6255 3879 mt 6228 3879 L
 899 3879 mt  952 3879 L
6255 3879 mt 6201 3879 L
%%IncludeResource: font Helvetica
/Helvetica /ISOLatin1Encoding 168 FMSR

 551 3941 mt 
(10) s
%%IncludeResource: font Helvetica
/Helvetica /ISOLatin1Encoding 112 FMSR

 737 3837 mt 
(-5) s
 899 3686 mt  925 3686 L
6255 3686 mt 6228 3686 L
 899 3573 mt  925 3573 L
6255 3573 mt 6228 3573 L
 899 3492 mt  925 3492 L
6255 3492 mt 6228 3492 L
 899 3430 mt  925 3430 L
6255 3430 mt 6228 3430 L
 899 3379 mt  925 3379 L
6255 3379 mt 6228 3379 L
 899 3336 mt  925 3336 L
6255 3336 mt 6228 3336 L
 899 3299 mt  925 3299 L
6255 3299 mt 6228 3299 L
 899 3266 mt  925 3266 L
6255 3266 mt 6228 3266 L
 899 3237 mt  925 3237 L
6255 3237 mt 6228 3237 L
 899 3237 mt  952 3237 L
6255 3237 mt 6201 3237 L
%%IncludeResource: font Helvetica
/Helvetica /ISOLatin1Encoding 168 FMSR

 551 3299 mt 
(10) s
%%IncludeResource: font Helvetica
/Helvetica /ISOLatin1Encoding 112 FMSR

 737 3195 mt 
(-4) s
 899 3043 mt  925 3043 L
6255 3043 mt 6228 3043 L
 899 2930 mt  925 2930 L
6255 2930 mt 6228 2930 L
 899 2850 mt  925 2850 L
6255 2850 mt 6228 2850 L
 899 2788 mt  925 2788 L
6255 2788 mt 6228 2788 L
 899 2737 mt  925 2737 L
6255 2737 mt 6228 2737 L
 899 2694 mt  925 2694 L
6255 2694 mt 6228 2694 L
 899 2657 mt  925 2657 L
6255 2657 mt 6228 2657 L
 899 2624 mt  925 2624 L
6255 2624 mt 6228 2624 L
 899 2594 mt  925 2594 L
6255 2594 mt 6228 2594 L
 899 2594 mt  952 2594 L
6255 2594 mt 6201 2594 L
%%IncludeResource: font Helvetica
/Helvetica /ISOLatin1Encoding 168 FMSR

 551 2656 mt 
(10) s
%%IncludeResource: font Helvetica
/Helvetica /ISOLatin1Encoding 112 FMSR

 737 2552 mt 
(-3) s
 899 2401 mt  925 2401 L
6255 2401 mt 6228 2401 L
 899 2288 mt  925 2288 L
6255 2288 mt 6228 2288 L
 899 2208 mt  925 2208 L
6255 2208 mt 6228 2208 L
 899 2145 mt  925 2145 L
6255 2145 mt 6228 2145 L
 899 2095 mt  925 2095 L
6255 2095 mt 6228 2095 L
 899 2052 mt  925 2052 L
6255 2052 mt 6228 2052 L
 899 2014 mt  925 2014 L
6255 2014 mt 6228 2014 L
 899 1981 mt  925 1981 L
6255 1981 mt 6228 1981 L
 899 1952 mt  925 1952 L
6255 1952 mt 6228 1952 L
 899 1952 mt  952 1952 L
6255 1952 mt 6201 1952 L
%%IncludeResource: font Helvetica
/Helvetica /ISOLatin1Encoding 168 FMSR

 551 2014 mt 
(10) s
%%IncludeResource: font Helvetica
/Helvetica /ISOLatin1Encoding 112 FMSR

 737 1910 mt 
(-2) s
 899 1759 mt  925 1759 L
6255 1759 mt 6228 1759 L
 899 1646 mt  925 1646 L
6255 1646 mt 6228 1646 L
 899 1565 mt  925 1565 L
6255 1565 mt 6228 1565 L
 899 1503 mt  925 1503 L
6255 1503 mt 6228 1503 L
 899 1452 mt  925 1452 L
6255 1452 mt 6228 1452 L
 899 1409 mt  925 1409 L
6255 1409 mt 6228 1409 L
 899 1372 mt  925 1372 L
6255 1372 mt 6228 1372 L
 899 1339 mt  925 1339 L
6255 1339 mt 6228 1339 L
 899 1310 mt  925 1310 L
6255 1310 mt 6228 1310 L
 899 1310 mt  952 1310 L
6255 1310 mt 6201 1310 L
%%IncludeResource: font Helvetica
/Helvetica /ISOLatin1Encoding 168 FMSR

 551 1372 mt 
(10) s
%%IncludeResource: font Helvetica
/Helvetica /ISOLatin1Encoding 112 FMSR

 737 1268 mt 
(-1) s
 899 1116 mt  925 1116 L
6255 1116 mt 6228 1116 L
 899 1003 mt  925 1003 L
6255 1003 mt 6228 1003 L
 899  923 mt  925  923 L
6255  923 mt 6228  923 L
 899  861 mt  925  861 L
6255  861 mt 6228  861 L
 899  810 mt  925  810 L
6255  810 mt 6228  810 L
 899  767 mt  925  767 L
6255  767 mt 6228  767 L
 899  730 mt  925  730 L
6255  730 mt 6228  730 L
 899  697 mt  925  697 L
6255  697 mt 6228  697 L
 899  667 mt  925  667 L
6255  667 mt 6228  667 L
 899  667 mt  952  667 L
6255  667 mt 6201  667 L
%%IncludeResource: font Helvetica
/Helvetica /ISOLatin1Encoding 168 FMSR

 551  729 mt 
(10) s
%%IncludeResource: font Helvetica
/Helvetica /ISOLatin1Encoding 112 FMSR

 737  625 mt 
(0) s
 899  474 mt  925  474 L
6255  474 mt 6228  474 L
 899 4615 mt 6255 4615 L
 899  388 mt 6255  388 L
 899 4615 mt  899  388 L
6255 4615 mt 6255  388 L
gs 899 389 5357 4227 rc
DA
36 w
/c8 { 1.000000 0.000000 0.000000 sr} bdef
c8
536 385 536 389 535 392 536 391 536 386 535 376 536 366 535 403 
536 378 535 -131 899 1086 11 MP stroke
gr

36 w
c8
DA
gs 789 845 5577 3687 rc
SO
 863 1086 mt  935 1086 L
 899 1050 mt  899 1122 L
1398  955 mt 1470  955 L
1434  919 mt 1434  991 L
1934 1333 mt 2006 1333 L
1970 1297 mt 1970 1369 L
2469 1736 mt 2541 1736 L
2505 1700 mt 2505 1772 L
3005 2102 mt 3077 2102 L
3041 2066 mt 3041 2138 L
3540 2478 mt 3612 2478 L
3576 2442 mt 3576 2514 L
4076 2864 mt 4148 2864 L
4112 2828 mt 4112 2900 L
4612 3255 mt 4684 3255 L
4648 3219 mt 4648 3291 L
5147 3647 mt 5219 3647 L
5183 3611 mt 5183 3683 L
5683 4036 mt 5755 4036 L
5719 4000 mt 5719 4072 L
6219 4421 mt 6291 4421 L
6255 4385 mt 6255 4457 L
 874 1061 mt  924 1111 L
 924 1061 mt  874 1111 L
1409  930 mt 1459  980 L
1459  930 mt 1409  980 L
1945 1308 mt 1995 1358 L
1995 1308 mt 1945 1358 L
2480 1711 mt 2530 1761 L
2530 1711 mt 2480 1761 L
3016 2077 mt 3066 2127 L
3066 2077 mt 3016 2127 L
3551 2453 mt 3601 2503 L
3601 2453 mt 3551 2503 L
4087 2839 mt 4137 2889 L
4137 2839 mt 4087 2889 L
4623 3230 mt 4673 3280 L
4673 3230 mt 4623 3280 L
5158 3622 mt 5208 3672 L
5208 3622 mt 5158 3672 L
5694 4011 mt 5744 4061 L
5744 4011 mt 5694 4061 L
6230 4396 mt 6280 4446 L
6280 4396 mt 6230 4446 L
DA
gr

gs 899 389 5357 4227 rc
DD
/c9 { 0.000000 1.000000 0.000000 sr} bdef
c9
536 194 536 194 535 196 536 200 536 203 535 204 536 229 535 145 
536 133 535 -1392 899 1974 11 MP stroke
gr

c9
DD
gs 789 472 5577 1919 rc
SO
  36   36  899 1974 FO
  36   36 1434  582 FO
  36   36 1970  715 FO
  36   36 2505  860 FO
  36   36 3041 1089 FO
  36   36 3576 1293 FO
  36   36 4112 1496 FO
  36   36 4648 1696 FO
  36   36 5183 1892 FO
  36   36 5719 2086 FO
  36   36 6255 2280 FO
DD
gr

gs 899 389 5357 4227 rc
DA
0 sg
112 81 536 387 535 387 536 387 536 386 535 387 536 387 535 386 
536 387 535 387 899 1054 11 MP stroke
DD
/c10 { 0.000000 0.000000 1.000000 sr} bdef
c10
536 193 536 193 535 194 536 193 536 193 535 194 536 193 535 193 
536 194 535 193 899 861 11 MP stroke
gr

c10
0 sg
%%IncludeResource: font Helvetica
/Helvetica /ISOLatin1Encoding 168 FMSR

2819 4983 mt 
(N cells in X direction) s
 383 2755 mt  -90 rotate
(|.|) s
90 rotate
%%IncludeResource: font Helvetica
/Helvetica /ISOLatin1Encoding 132 FMSR

 467 2621 mt  -90 rotate
(infinity) s
90 rotate
%%IncludeResource: font Helvetica
/Helvetica /ISOLatin1Encoding 168 FMSR

 334  257 mt 
(Convergence: 1 F-cycle, 512 solves, Laplacian, u=\(x) s
%%IncludeResource: font Helvetica
/Helvetica /ISOLatin1Encoding 132 FMSR

4258  173 mt 
(4) s
%%IncludeResource: font Helvetica
/Helvetica /ISOLatin1Encoding 168 FMSR

4331  257 mt 
( - L) s
%%IncludeResource: font Helvetica
/Helvetica /ISOLatin1Encoding 132 FMSR

4615  173 mt 
(2) s
%%IncludeResource: font Helvetica
/Helvetica /ISOLatin1Encoding 168 FMSR

4688  257 mt 
( x) s
%%IncludeResource: font Helvetica
/Helvetica /ISOLatin1Encoding 132 FMSR

4818  173 mt 
(2) s
%%IncludeResource: font Helvetica
/Helvetica /ISOLatin1Encoding 168 FMSR

4891  257 mt 
(\), L=\(2,1,1\), 32) s
%%IncludeResource: font Helvetica
/Helvetica /ISOLatin1Encoding 132 FMSR

5997  173 mt 
(3) s
%%IncludeResource: font Helvetica
/Helvetica /ISOLatin1Encoding 168 FMSR

6070  257 mt 
( cells/core) s
SO
6 w
1 sg
0 846 1277 0 0 -846 4863 1321 4 MP
PP
-1277 0 0 846 1277 0 0 -846 4863 1321 5 MP stroke
4 w
DO
SO
6 w
0 sg
4863 1321 mt 6140 1321 L
4863  475 mt 6140  475 L
4863 1321 mt 4863  475 L
6140 1321 mt 6140  475 L
4863 1321 mt 6140 1321 L
4863 1321 mt 4863  475 L
4863 1321 mt 6140 1321 L
4863  475 mt 6140  475 L
4863 1321 mt 4863  475 L
6140 1321 mt 6140  475 L
5348  656 mt 
(Error) s
gs 4863 475 1278 847 rc
DA
36 w
c8
373 0 4937 595 2 MP stroke
SO
gs 5013 485 221 221 rc
5087  595 mt 5159  595 L
5123  559 mt 5123  631 L
5098  570 mt 5148  620 L
5148  570 mt 5098  620 L
gr

gr

36 w
c8
0 sg
5348  858 mt 
(Residual) s
gs 4863 475 1278 847 rc
DD
c9
373 0 4937 797 2 MP stroke
SO
gs 5013 687 221 221 rc
  36   36 5123  797 FO
gr

gr

c9
0 sg
5348 1059 mt 
(Quadradic) s
gs 4863 475 1278 847 rc
DA
373 0 4937 998 2 MP stroke
SO
gr

5348 1261 mt 
(Linear) s
gs 4863 475 1278 847 rc
DD
c10
373 0 4937 1200 2 MP stroke
SO
6 w
gr

6 w
c10

end %%Color Dict

eplot
%%EndObject

epage
end

showpage

%%Trailer
%%EOF
