%!PS-Adobe-3.0 EPSF-3.0
%%Creator: MATLAB, The MathWorks, Inc. Version 7.14.0.739 (R2012a). Operating System: Linux 3.0.74-0.6.8-default #1 SMP Wed May 15 07:26:33 UTC 2013 (5e244d7) x86_64.
%%Title: ./converg_errors_edison.eps
%%CreationDate: 05/21/2014  14:06:18
%%DocumentNeededFonts: Helvetica
%%DocumentProcessColors: Cyan Magenta Yellow Black
%%LanguageLevel: 2
%%Pages: 1
%%BoundingBox:    34   191   560   613
%%EndComments

%%BeginProlog
% MathWorks dictionary
/MathWorks 160 dict begin
% definition operators
/bdef {bind def} bind def
/ldef {load def} bind def
/xdef {exch def} bdef
/xstore {exch store} bdef
% operator abbreviations
/c  /clip ldef
/cc /concat ldef
/cp /closepath ldef
/gr /grestore ldef
/gs /gsave ldef
/mt /moveto ldef
/np /newpath ldef
/cm /currentmatrix ldef
/sm /setmatrix ldef
/rm /rmoveto ldef
/rl /rlineto ldef
/s {show newpath} bdef
/sc {setcmykcolor} bdef
/sr /setrgbcolor ldef
/sg /setgray ldef
/w /setlinewidth ldef
/j /setlinejoin ldef
/cap /setlinecap ldef
/rc {rectclip} bdef
/rf {rectfill} bdef
% page state control
/pgsv () def
/bpage {/pgsv save def} bdef
/epage {pgsv restore} bdef
/bplot /gsave ldef
/eplot {stroke grestore} bdef
% orientation switch
/portraitMode 0 def /landscapeMode 1 def /rotateMode 2 def
% coordinate system mappings
/dpi2point 0 def
% font control
/FontSize 0 def
/FMS {/FontSize xstore findfont [FontSize 0 0 FontSize neg 0 0]
  makefont setfont} bdef
/reencode {exch dup where {pop load} {pop StandardEncoding} ifelse
  exch dup 3 1 roll findfont dup length dict begin
  { 1 index /FID ne {def}{pop pop} ifelse } forall
  /Encoding exch def currentdict end definefont pop} bdef
/isroman {findfont /CharStrings get /Agrave known} bdef
/FMSR {3 1 roll 1 index dup isroman {reencode} {pop pop} ifelse
  exch FMS} bdef
/csm {1 dpi2point div -1 dpi2point div scale neg translate
 dup landscapeMode eq {pop -90 rotate}
  {rotateMode eq {90 rotate} if} ifelse} bdef
% line types: solid, dotted, dashed, dotdash
/SO { [] 0 setdash } bdef
/DO { [.5 dpi2point mul 4 dpi2point mul] 0 setdash } bdef
/DA { [6 dpi2point mul] 0 setdash } bdef
/DD { [.5 dpi2point mul 4 dpi2point mul 6 dpi2point mul 4
  dpi2point mul] 0 setdash } bdef
% macros for lines and objects
/L {lineto stroke} bdef
/MP {3 1 roll moveto 1 sub {rlineto} repeat} bdef
/AP {{rlineto} repeat} bdef
/PDlw -1 def
/W {/PDlw currentlinewidth def setlinewidth} def
/PP {closepath eofill} bdef
/DP {closepath stroke} bdef
/MR {4 -2 roll moveto dup  0 exch rlineto exch 0 rlineto
  neg 0 exch rlineto closepath} bdef
/FR {MR stroke} bdef
/PR {MR fill} bdef
/L1i {{currentfile picstr readhexstring pop} image} bdef
/tMatrix matrix def
/MakeOval {newpath tMatrix currentmatrix pop translate scale
0 0 1 0 360 arc tMatrix setmatrix} bdef
/FO {MakeOval stroke} bdef
/PO {MakeOval fill} bdef
/PD {currentlinewidth 2 div 0 360 arc fill
   PDlw -1 eq not {PDlw w /PDlw -1 def} if} def
/FA {newpath tMatrix currentmatrix pop translate scale
  0 0 1 5 -2 roll arc tMatrix setmatrix stroke} bdef
/PA {newpath tMatrix currentmatrix pop	translate 0 0 moveto scale
  0 0 1 5 -2 roll arc closepath tMatrix setmatrix fill} bdef
/FAn {newpath tMatrix currentmatrix pop translate scale
  0 0 1 5 -2 roll arcn tMatrix setmatrix stroke} bdef
/PAn {newpath tMatrix currentmatrix pop translate 0 0 moveto scale
  0 0 1 5 -2 roll arcn closepath tMatrix setmatrix fill} bdef
/vradius 0 def /hradius 0 def /lry 0 def
/lrx 0 def /uly 0 def /ulx 0 def /rad 0 def
/MRR {/vradius xdef /hradius xdef /lry xdef /lrx xdef /uly xdef
  /ulx xdef newpath tMatrix currentmatrix pop ulx hradius add uly
  vradius add translate hradius vradius scale 0 0 1 180 270 arc 
  tMatrix setmatrix lrx hradius sub uly vradius add translate
  hradius vradius scale 0 0 1 270 360 arc tMatrix setmatrix
  lrx hradius sub lry vradius sub translate hradius vradius scale
  0 0 1 0 90 arc tMatrix setmatrix ulx hradius add lry vradius sub
  translate hradius vradius scale 0 0 1 90 180 arc tMatrix setmatrix
  closepath} bdef
/FRR {MRR stroke } bdef
/PRR {MRR fill } bdef
/MlrRR {/lry xdef /lrx xdef /uly xdef /ulx xdef /rad lry uly sub 2 div def
  newpath tMatrix currentmatrix pop ulx rad add uly rad add translate
  rad rad scale 0 0 1 90 270 arc tMatrix setmatrix lrx rad sub lry rad
  sub translate rad rad scale 0 0 1 270 90 arc tMatrix setmatrix
  closepath} bdef
/FlrRR {MlrRR stroke } bdef
/PlrRR {MlrRR fill } bdef
/MtbRR {/lry xdef /lrx xdef /uly xdef /ulx xdef /rad lrx ulx sub 2 div def
  newpath tMatrix currentmatrix pop ulx rad add uly rad add translate
  rad rad scale 0 0 1 180 360 arc tMatrix setmatrix lrx rad sub lry rad
  sub translate rad rad scale 0 0 1 0 180 arc tMatrix setmatrix
  closepath} bdef
/FtbRR {MtbRR stroke } bdef
/PtbRR {MtbRR fill } bdef
/stri 6 array def /dtri 6 array def
/smat 6 array def /dmat 6 array def
/tmat1 6 array def /tmat2 6 array def /dif 3 array def
/asub {/ind2 exch def /ind1 exch def dup dup
  ind1 get exch ind2 get sub exch } bdef
/tri_to_matrix {
  2 0 asub 3 1 asub 4 0 asub 5 1 asub
  dup 0 get exch 1 get 7 -1 roll astore } bdef
/compute_transform {
  dmat dtri tri_to_matrix tmat1 invertmatrix 
  smat stri tri_to_matrix tmat2 concatmatrix } bdef
/ds {stri astore pop} bdef
/dt {dtri astore pop} bdef
/db {2 copy /cols xdef /rows xdef mul dup 3 mul string
  currentfile 
  3 index 0 eq {/ASCIIHexDecode filter}
  {/ASCII85Decode filter 3 index 2 eq {/RunLengthDecode filter} if }
  ifelse exch readstring pop
  dup 0 3 index getinterval /rbmap xdef
  dup 2 index dup getinterval /gbmap xdef
  1 index dup 2 mul exch getinterval /bbmap xdef pop pop}bdef
/it {gs np dtri aload pop moveto lineto lineto cp c
  cols rows 8 compute_transform 
  rbmap gbmap bbmap true 3 colorimage gr}bdef
/il {newpath moveto lineto stroke}bdef
currentdict end def
%%EndProlog

%%BeginSetup
MathWorks begin

0 cap

end
%%EndSetup

%%Page: 1 1
%%BeginPageSetup
%%PageBoundingBox:    34   191   560   613
MathWorks begin
bpage
%%EndPageSetup

%%BeginObject: obj1
bplot

/dpi2point 12 def
portraitMode 0216 7344 csm

  202   -22  6309  5068 rc
86 dict begin %Colortable dictionary
/c0 { 0.000000 0.000000 0.000000 sr} bdef
/c1 { 1.000000 1.000000 1.000000 sr} bdef
/c2 { 0.900000 0.000000 0.000000 sr} bdef
/c3 { 0.000000 0.820000 0.000000 sr} bdef
/c4 { 0.000000 0.000000 0.800000 sr} bdef
/c5 { 0.910000 0.820000 0.320000 sr} bdef
/c6 { 1.000000 0.260000 0.820000 sr} bdef
/c7 { 0.000000 0.820000 0.820000 sr} bdef
c0
1 j
1 sg
   0    0 6914 5188 rf
6 w
0 4227 5357 0 0 -4227 899 4616 4 MP
PP
-5357 0 0 4227 5357 0 0 -4227 899 4616 5 MP stroke
4 w
DO
SO
6 w
0 sg
 899 4616 mt 6256 4616 L
 899  389 mt 6256  389 L
 899 4616 mt  899  389 L
6256 4616 mt 6256  389 L
 899 4616 mt 6256 4616 L
 899 4616 mt  899  389 L
 899 4616 mt  899 4589 L
 899  389 mt  899  415 L
 899 4616 mt  899 4562 L
 899  389 mt  899  442 L
%%IncludeResource: font Helvetica
/Helvetica /ISOLatin1Encoding 168 FMSR

 853 4806 mt 
(2) s
1386 4616 mt 1386 4589 L
1386  389 mt 1386  415 L
1386 4616 mt 1386 4589 L
1386  389 mt 1386  415 L
1386 4616 mt 1386 4589 L
1386  389 mt 1386  415 L
1386 4616 mt 1386 4589 L
1386  389 mt 1386  415 L
1386 4616 mt 1386 4589 L
1386  389 mt 1386  415 L
1386 4616 mt 1386 4589 L
1386  389 mt 1386  415 L
1386 4616 mt 1386 4589 L
1386  389 mt 1386  415 L
1386 4616 mt 1386 4589 L
1386  389 mt 1386  415 L
1386 4616 mt 1386 4589 L
1386  389 mt 1386  415 L
1386 4616 mt 1386 4562 L
1386  389 mt 1386  442 L
1340 4806 mt 
(4) s
1873 4616 mt 1873 4589 L
1873  389 mt 1873  415 L
1873 4616 mt 1873 4589 L
1873  389 mt 1873  415 L
1873 4616 mt 1873 4589 L
1873  389 mt 1873  415 L
1873 4616 mt 1873 4589 L
1873  389 mt 1873  415 L
1873 4616 mt 1873 4589 L
1873  389 mt 1873  415 L
1873 4616 mt 1873 4589 L
1873  389 mt 1873  415 L
1873 4616 mt 1873 4589 L
1873  389 mt 1873  415 L
1873 4616 mt 1873 4589 L
1873  389 mt 1873  415 L
1873 4616 mt 1873 4589 L
1873  389 mt 1873  415 L
1873 4616 mt 1873 4562 L
1873  389 mt 1873  442 L
1827 4806 mt 
(8) s
2360 4616 mt 2360 4589 L
2360  389 mt 2360  415 L
2360 4616 mt 2360 4589 L
2360  389 mt 2360  415 L
2360 4616 mt 2360 4589 L
2360  389 mt 2360  415 L
2360 4616 mt 2360 4589 L
2360  389 mt 2360  415 L
2360 4616 mt 2360 4589 L
2360  389 mt 2360  415 L
2360 4616 mt 2360 4589 L
2360  389 mt 2360  415 L
2360 4616 mt 2360 4589 L
2360  389 mt 2360  415 L
2360 4616 mt 2360 4589 L
2360  389 mt 2360  415 L
2360 4616 mt 2360 4589 L
2360  389 mt 2360  415 L
2360 4616 mt 2360 4562 L
2360  389 mt 2360  442 L
2267 4806 mt 
(16) s
2847 4616 mt 2847 4589 L
2847  389 mt 2847  415 L
2847 4616 mt 2847 4589 L
2847  389 mt 2847  415 L
2847 4616 mt 2847 4589 L
2847  389 mt 2847  415 L
2847 4616 mt 2847 4589 L
2847  389 mt 2847  415 L
2847 4616 mt 2847 4589 L
2847  389 mt 2847  415 L
2847 4616 mt 2847 4589 L
2847  389 mt 2847  415 L
2847 4616 mt 2847 4589 L
2847  389 mt 2847  415 L
2847 4616 mt 2847 4589 L
2847  389 mt 2847  415 L
2847 4616 mt 2847 4589 L
2847  389 mt 2847  415 L
2847 4616 mt 2847 4562 L
2847  389 mt 2847  442 L
2754 4806 mt 
(32) s
3334 4616 mt 3334 4589 L
3334  389 mt 3334  415 L
3334 4616 mt 3334 4589 L
3334  389 mt 3334  415 L
3334 4616 mt 3334 4589 L
3334  389 mt 3334  415 L
3334 4616 mt 3334 4589 L
3334  389 mt 3334  415 L
3334 4616 mt 3334 4589 L
3334  389 mt 3334  415 L
3334 4616 mt 3334 4589 L
3334  389 mt 3334  415 L
3334 4616 mt 3334 4589 L
3334  389 mt 3334  415 L
3334 4616 mt 3334 4589 L
3334  389 mt 3334  415 L
3334 4616 mt 3334 4589 L
3334  389 mt 3334  415 L
3334 4616 mt 3334 4562 L
3334  389 mt 3334  442 L
3241 4806 mt 
(64) s
3821 4616 mt 3821 4589 L
3821  389 mt 3821  415 L
3821 4616 mt 3821 4589 L
3821  389 mt 3821  415 L
3821 4616 mt 3821 4589 L
3821  389 mt 3821  415 L
3821 4616 mt 3821 4589 L
3821  389 mt 3821  415 L
3821 4616 mt 3821 4589 L
3821  389 mt 3821  415 L
3821 4616 mt 3821 4589 L
3821  389 mt 3821  415 L
3821 4616 mt 3821 4589 L
3821  389 mt 3821  415 L
3821 4616 mt 3821 4589 L
3821  389 mt 3821  415 L
3821 4616 mt 3821 4589 L
3821  389 mt 3821  415 L
3821 4616 mt 3821 4562 L
3821  389 mt 3821  442 L
3681 4806 mt 
(128) s
4308 4616 mt 4308 4589 L
4308  389 mt 4308  415 L
4308 4616 mt 4308 4589 L
4308  389 mt 4308  415 L
4308 4616 mt 4308 4589 L
4308  389 mt 4308  415 L
4308 4616 mt 4308 4589 L
4308  389 mt 4308  415 L
4308 4616 mt 4308 4589 L
4308  389 mt 4308  415 L
4308 4616 mt 4308 4589 L
4308  389 mt 4308  415 L
4308 4616 mt 4308 4589 L
4308  389 mt 4308  415 L
4308 4616 mt 4308 4589 L
4308  389 mt 4308  415 L
4308 4616 mt 4308 4589 L
4308  389 mt 4308  415 L
4308 4616 mt 4308 4562 L
4308  389 mt 4308  442 L
4168 4806 mt 
(256) s
4795 4616 mt 4795 4589 L
4795  389 mt 4795  415 L
4795 4616 mt 4795 4589 L
4795  389 mt 4795  415 L
4795 4616 mt 4795 4589 L
4795  389 mt 4795  415 L
4795 4616 mt 4795 4589 L
4795  389 mt 4795  415 L
4795 4616 mt 4795 4589 L
4795  389 mt 4795  415 L
4795 4616 mt 4795 4589 L
4795  389 mt 4795  415 L
4795 4616 mt 4795 4589 L
4795  389 mt 4795  415 L
4795 4616 mt 4795 4589 L
4795  389 mt 4795  415 L
4795 4616 mt 4795 4589 L
4795  389 mt 4795  415 L
4795 4616 mt 4795 4562 L
4795  389 mt 4795  442 L
4655 4806 mt 
(512) s
5282 4616 mt 5282 4589 L
5282  389 mt 5282  415 L
5282 4616 mt 5282 4589 L
5282  389 mt 5282  415 L
5282 4616 mt 5282 4589 L
5282  389 mt 5282  415 L
5282 4616 mt 5282 4589 L
5282  389 mt 5282  415 L
5282 4616 mt 5282 4589 L
5282  389 mt 5282  415 L
5282 4616 mt 5282 4589 L
5282  389 mt 5282  415 L
5282 4616 mt 5282 4589 L
5282  389 mt 5282  415 L
5282 4616 mt 5282 4589 L
5282  389 mt 5282  415 L
5282 4616 mt 5282 4589 L
5282  389 mt 5282  415 L
5282 4616 mt 5282 4562 L
5282  389 mt 5282  442 L
5096 4806 mt 
(1024) s
5769 4616 mt 5769 4589 L
5769  389 mt 5769  415 L
5769 4616 mt 5769 4589 L
5769  389 mt 5769  415 L
5769 4616 mt 5769 4589 L
5769  389 mt 5769  415 L
5769 4616 mt 5769 4589 L
5769  389 mt 5769  415 L
5769 4616 mt 5769 4589 L
5769  389 mt 5769  415 L
5769 4616 mt 5769 4589 L
5769  389 mt 5769  415 L
5769 4616 mt 5769 4589 L
5769  389 mt 5769  415 L
5769 4616 mt 5769 4589 L
5769  389 mt 5769  415 L
5769 4616 mt 5769 4589 L
5769  389 mt 5769  415 L
5769 4616 mt 5769 4562 L
5769  389 mt 5769  442 L
5583 4806 mt 
(2048) s
6256 4616 mt 6256 4589 L
6256  389 mt 6256  415 L
6256 4616 mt 6256 4589 L
6256  389 mt 6256  415 L
6256 4616 mt 6256 4589 L
6256  389 mt 6256  415 L
6256 4616 mt 6256 4589 L
6256  389 mt 6256  415 L
6256 4616 mt 6256 4589 L
6256  389 mt 6256  415 L
6256 4616 mt 6256 4589 L
6256  389 mt 6256  415 L
6256 4616 mt 6256 4589 L
6256  389 mt 6256  415 L
6256 4616 mt 6256 4589 L
6256  389 mt 6256  415 L
6256 4616 mt 6256 4589 L
6256  389 mt 6256  415 L
6256 4616 mt 6256 4562 L
6256  389 mt 6256  442 L
6070 4806 mt 
(4096) s
 899 4078 mt  925 4078 L
6256 4078 mt 6229 4078 L
 899 4107 mt  925 4107 L
6256 4107 mt 6229 4107 L
 899 4140 mt  925 4140 L
6256 4140 mt 6229 4140 L
 899 4177 mt  925 4177 L
6256 4177 mt 6229 4177 L
 899 4219 mt  925 4219 L
6256 4219 mt 6229 4219 L
 899 4270 mt  925 4270 L
6256 4270 mt 6229 4270 L
 899 4331 mt  925 4331 L
6256 4331 mt 6229 4331 L
 899 4411 mt  925 4411 L
6256 4411 mt 6229 4411 L
 899 4523 mt  925 4523 L
6256 4523 mt 6229 4523 L
 899 4078 mt  952 4078 L
6256 4078 mt 6202 4078 L
 551 4140 mt 
(10) s
%%IncludeResource: font Helvetica
/Helvetica /ISOLatin1Encoding 112 FMSR

 737 4036 mt 
(-7) s
 899 3887 mt  925 3887 L
6256 3887 mt 6229 3887 L
 899 3775 mt  925 3775 L
6256 3775 mt 6229 3775 L
 899 3696 mt  925 3696 L
6256 3696 mt 6229 3696 L
 899 3634 mt  925 3634 L
6256 3634 mt 6229 3634 L
 899 3584 mt  925 3584 L
6256 3584 mt 6229 3584 L
 899 3541 mt  925 3541 L
6256 3541 mt 6229 3541 L
 899 3504 mt  925 3504 L
6256 3504 mt 6229 3504 L
 899 3472 mt  925 3472 L
6256 3472 mt 6229 3472 L
 899 3443 mt  925 3443 L
6256 3443 mt 6229 3443 L
 899 3443 mt  952 3443 L
6256 3443 mt 6202 3443 L
%%IncludeResource: font Helvetica
/Helvetica /ISOLatin1Encoding 168 FMSR

 551 3505 mt 
(10) s
%%IncludeResource: font Helvetica
/Helvetica /ISOLatin1Encoding 112 FMSR

 737 3401 mt 
(-6) s
 899 3251 mt  925 3251 L
6256 3251 mt 6229 3251 L
 899 3139 mt  925 3139 L
6256 3139 mt 6229 3139 L
 899 3060 mt  925 3060 L
6256 3060 mt 6229 3060 L
 899 2998 mt  925 2998 L
6256 2998 mt 6229 2998 L
 899 2948 mt  925 2948 L
6256 2948 mt 6229 2948 L
 899 2906 mt  925 2906 L
6256 2906 mt 6229 2906 L
 899 2869 mt  925 2869 L
6256 2869 mt 6229 2869 L
 899 2836 mt  925 2836 L
6256 2836 mt 6229 2836 L
 899 2807 mt  925 2807 L
6256 2807 mt 6229 2807 L
 899 2807 mt  952 2807 L
6256 2807 mt 6202 2807 L
%%IncludeResource: font Helvetica
/Helvetica /ISOLatin1Encoding 168 FMSR

 551 2869 mt 
(10) s
%%IncludeResource: font Helvetica
/Helvetica /ISOLatin1Encoding 112 FMSR

 737 2765 mt 
(-5) s
 899 2616 mt  925 2616 L
6256 2616 mt 6229 2616 L
 899 2504 mt  925 2504 L
6256 2504 mt 6229 2504 L
 899 2424 mt  925 2424 L
6256 2424 mt 6229 2424 L
 899 2363 mt  925 2363 L
6256 2363 mt 6229 2363 L
 899 2313 mt  925 2313 L
6256 2313 mt 6229 2313 L
 899 2270 mt  925 2270 L
6256 2270 mt 6229 2270 L
 899 2233 mt  925 2233 L
6256 2233 mt 6229 2233 L
 899 2201 mt  925 2201 L
6256 2201 mt 6229 2201 L
 899 2172 mt  925 2172 L
6256 2172 mt 6229 2172 L
 899 2172 mt  952 2172 L
6256 2172 mt 6202 2172 L
%%IncludeResource: font Helvetica
/Helvetica /ISOLatin1Encoding 168 FMSR

 551 2234 mt 
(10) s
%%IncludeResource: font Helvetica
/Helvetica /ISOLatin1Encoding 112 FMSR

 737 2130 mt 
(-4) s
 899 1980 mt  925 1980 L
6256 1980 mt 6229 1980 L
 899 1868 mt  925 1868 L
6256 1868 mt 6229 1868 L
 899 1789 mt  925 1789 L
6256 1789 mt 6229 1789 L
 899 1727 mt  925 1727 L
6256 1727 mt 6229 1727 L
 899 1677 mt  925 1677 L
6256 1677 mt 6229 1677 L
 899 1634 mt  925 1634 L
6256 1634 mt 6229 1634 L
 899 1598 mt  925 1598 L
6256 1598 mt 6229 1598 L
 899 1565 mt  925 1565 L
6256 1565 mt 6229 1565 L
 899 1536 mt  925 1536 L
6256 1536 mt 6229 1536 L
 899 1536 mt  952 1536 L
6256 1536 mt 6202 1536 L
%%IncludeResource: font Helvetica
/Helvetica /ISOLatin1Encoding 168 FMSR

 551 1598 mt 
(10) s
%%IncludeResource: font Helvetica
/Helvetica /ISOLatin1Encoding 112 FMSR

 737 1494 mt 
(-3) s
 899 1345 mt  925 1345 L
6256 1345 mt 6229 1345 L
 899 1233 mt  925 1233 L
6256 1233 mt 6229 1233 L
 899 1153 mt  925 1153 L
6256 1153 mt 6229 1153 L
 899 1092 mt  925 1092 L
6256 1092 mt 6229 1092 L
 899 1041 mt  925 1041 L
6256 1041 mt 6229 1041 L
 899  999 mt  925  999 L
6256  999 mt 6229  999 L
 899  962 mt  925  962 L
6256  962 mt 6229  962 L
 899  929 mt  925  929 L
6256  929 mt 6229  929 L
 899  900 mt  925  900 L
6256  900 mt 6229  900 L
 899  900 mt  952  900 L
6256  900 mt 6202  900 L
%%IncludeResource: font Helvetica
/Helvetica /ISOLatin1Encoding 168 FMSR

 551  962 mt 
(10) s
%%IncludeResource: font Helvetica
/Helvetica /ISOLatin1Encoding 112 FMSR

 737  858 mt 
(-2) s
 899  709 mt  925  709 L
6256  709 mt 6229  709 L
 899  597 mt  925  597 L
6256  597 mt 6229  597 L
 899  518 mt  925  518 L
6256  518 mt 6229  518 L
 899  456 mt  925  456 L
6256  456 mt 6229  456 L
 899  406 mt  925  406 L
6256  406 mt 6229  406 L
 899 4616 mt 6256 4616 L
 899  389 mt 6256  389 L
 899 4616 mt  899  389 L
6256 4616 mt 6256  389 L
gs 899 389 5358 4228 rc
DD
36 w
/c8 { 0.000000 0.000000 1.000000 sr} bdef
c8
487 382 487 383 487 382 487 383 487 383 487 383 487 384 487 384 
487 386 487 394 225 191 1161 389 12 MP stroke
gr

36 w
c8
DD
SO
0 j
0 -58 -58 0 0 58 58 0 1357 551 5 MP
DP
0 -58 -58 0 0 58 58 0 1844 945 5 MP
DP
0 -58 -58 0 0 58 58 0 2331 1331 5 MP
DP
0 -58 -58 0 0 58 58 0 2818 1715 5 MP
DP
0 -58 -58 0 0 58 58 0 3305 2099 5 MP
DP
0 -58 -58 0 0 58 58 0 3792 2482 5 MP
DP
0 -58 -58 0 0 58 58 0 4279 2865 5 MP
DP
0 -58 -58 0 0 58 58 0 4766 3248 5 MP
DP
0 -58 -58 0 0 58 58 0 5253 3630 5 MP
DP
0 -58 -58 0 0 58 58 0 5740 4013 5 MP
DP
0 -58 -58 0 0 58 58 0 6227 4395 5 MP
DP
DD
gs 899 389 5358 4228 rc
DO
/c9 { 1.000000 0.000000 1.000000 sr} bdef
c9
487 364 487 381 487 382 487 383 487 383 487 383 487 384 487 384 
487 386 487 394 225 191 1161 389 12 MP stroke
gr

c9
DO
SO
0 -58 -58 0 0 58 58 0 1357 551 5 MP
DP
0 -58 -58 0 0 58 58 0 1844 945 5 MP
DP
0 -58 -58 0 0 58 58 0 2331 1331 5 MP
DP
0 -58 -58 0 0 58 58 0 2818 1715 5 MP
DP
0 -58 -58 0 0 58 58 0 3305 2099 5 MP
DP
0 -58 -58 0 0 58 58 0 3792 2482 5 MP
DP
0 -58 -58 0 0 58 58 0 4279 2865 5 MP
DP
0 -58 -58 0 0 58 58 0 4766 3248 5 MP
DP
0 -58 -58 0 0 58 58 0 5253 3630 5 MP
DP
0 -58 -58 0 0 58 58 0 5740 4011 5 MP
DP
0 -58 -58 0 0 58 58 0 6227 4375 5 MP
DP
DO
gs 899 389 5358 4228 rc
DA
/c10 { 1.000000 0.000000 0.000000 sr} bdef
c10
1 0 487 -37 487 -39 487 412 4795 2938 5 MP stroke
gr

c10
DA
SO
4770 2913 mt 4820 2963 L
4820 2913 mt 4770 2963 L
5257 3325 mt 5307 3375 L
5307 3325 mt 5257 3375 L
5744 3286 mt 5794 3336 L
5794 3286 mt 5744 3336 L
6231 3249 mt 6281 3299 L
6281 3249 mt 6231 3299 L
DA
gs 899 389 5358 4228 rc
gr

0 sg
%%IncludeResource: font Helvetica
/Helvetica /ISOLatin1Encoding 168 FMSR

2815 4984 mt 
(N cells in X direction) s
 383 2907 mt  -90 rotate
(|error|) s
90 rotate
%%IncludeResource: font Helvetica
/Helvetica /ISOLatin1Encoding 132 FMSR

 467 2465 mt  -90 rotate
(infinity) s
90 rotate
%%IncludeResource: font Helvetica
/Helvetica /ISOLatin1Encoding 168 FMSR

 715  257 mt 
(Error: 8 solves, Laplacian, u=\(x) s
%%IncludeResource: font Helvetica
/Helvetica /ISOLatin1Encoding 132 FMSR

3025  173 mt 
(4) s
%%IncludeResource: font Helvetica
/Helvetica /ISOLatin1Encoding 168 FMSR

3098  257 mt 
( - L) s
%%IncludeResource: font Helvetica
/Helvetica /ISOLatin1Encoding 132 FMSR

3382  173 mt 
(2) s
%%IncludeResource: font Helvetica
/Helvetica /ISOLatin1Encoding 168 FMSR

3455  257 mt 
( x) s
%%IncludeResource: font Helvetica
/Helvetica /ISOLatin1Encoding 132 FMSR

3585  173 mt 
(2) s
%%IncludeResource: font Helvetica
/Helvetica /ISOLatin1Encoding 168 FMSR

3658  257 mt 
(\), L=\(2,1,1\), 128) s
%%IncludeResource: font Helvetica
/Helvetica /ISOLatin1Encoding 132 FMSR

4858  173 mt 
(3) s
%%IncludeResource: font Helvetica
/Helvetica /ISOLatin1Encoding 168 FMSR

4931  257 mt 
( cells/core \(8 solves\)) s
 876 4677 mt 
( ) s
6234  449 mt 
( ) s
SO
6 w
1 sg
0 695 2364 0 0 -695 3833 1145 4 MP
PP
-2364 0 0 695 2364 0 0 -695 3833 1145 5 MP stroke
4 w
DO
SO
6 w
0 sg
3833 1145 mt 6197 1145 L
3833  450 mt 6197  450 L
3833 1145 mt 3833  450 L
6197 1145 mt 6197  450 L
3833 1145 mt 6197 1145 L
3833 1145 mt 3833  450 L
3833 1145 mt 6197 1145 L
3833  450 mt 6197  450 L
3833 1145 mt 3833  450 L
6197 1145 mt 6197  450 L
4331  632 mt 
(1 F-cycle w/ V\(2,2\)) s
gs 3833 450 2365 696 rc
DD
36 w
c8
383 0 3909 571 2 MP stroke
SO
gs 3991 461 221 221 rc
0 -58 -58 0 0 58 58 0 4072 542 5 MP
DP
gr

gr

36 w
c8
0 sg
4331  837 mt 
(1 F-cycle w/ V\(2,2\) - SR) s
gs 3833 450 2365 696 rc
DO
c9
383 0 3909 776 2 MP stroke
SO
gs 3991 666 221 221 rc
0 -58 -58 0 0 58 58 0 4072 747 5 MP
DP
gr

gr

c9
0 sg
4331 1080 mt 
(V\(2,2\) cycles, rtol=10.) s
%%IncludeResource: font Helvetica
/Helvetica /ISOLatin1Encoding 132 FMSR

5964  996 mt 
(-4) s
gs 3833 450 2365 696 rc
DA
c10
383 0 3909 1002 2 MP stroke
SO
gs 3991 892 221 221 rc
4076  977 mt 4126 1027 L
4126  977 mt 4076 1027 L
gr

6 w
gr

6 w
c10

end %%Color Dict

eplot
%%EndObject

epage
end

showpage

%%Trailer
%%EOF
