%!PS-Adobe-3.0 EPSF-3.0
%%Creator: MATLAB, The MathWorks, Inc. Version 7.14.0.739 (R2012a). Operating System: Linux 3.0.74-0.6.8-default #1 SMP Wed May 15 07:26:33 UTC 2013 (5e244d7) x86_64.
%%Title: ./converg_Fcycles_128N_edison.eps
%%CreationDate: 05/21/2014  14:06:16
%%DocumentNeededFonts: Helvetica
%%DocumentProcessColors: Cyan Magenta Yellow Black
%%LanguageLevel: 2
%%Pages: 1
%%BoundingBox:    34   191   564   613
%%EndComments

%%BeginProlog
% MathWorks dictionary
/MathWorks 160 dict begin
% definition operators
/bdef {bind def} bind def
/ldef {load def} bind def
/xdef {exch def} bdef
/xstore {exch store} bdef
% operator abbreviations
/c  /clip ldef
/cc /concat ldef
/cp /closepath ldef
/gr /grestore ldef
/gs /gsave ldef
/mt /moveto ldef
/np /newpath ldef
/cm /currentmatrix ldef
/sm /setmatrix ldef
/rm /rmoveto ldef
/rl /rlineto ldef
/s {show newpath} bdef
/sc {setcmykcolor} bdef
/sr /setrgbcolor ldef
/sg /setgray ldef
/w /setlinewidth ldef
/j /setlinejoin ldef
/cap /setlinecap ldef
/rc {rectclip} bdef
/rf {rectfill} bdef
% page state control
/pgsv () def
/bpage {/pgsv save def} bdef
/epage {pgsv restore} bdef
/bplot /gsave ldef
/eplot {stroke grestore} bdef
% orientation switch
/portraitMode 0 def /landscapeMode 1 def /rotateMode 2 def
% coordinate system mappings
/dpi2point 0 def
% font control
/FontSize 0 def
/FMS {/FontSize xstore findfont [FontSize 0 0 FontSize neg 0 0]
  makefont setfont} bdef
/reencode {exch dup where {pop load} {pop StandardEncoding} ifelse
  exch dup 3 1 roll findfont dup length dict begin
  { 1 index /FID ne {def}{pop pop} ifelse } forall
  /Encoding exch def currentdict end definefont pop} bdef
/isroman {findfont /CharStrings get /Agrave known} bdef
/FMSR {3 1 roll 1 index dup isroman {reencode} {pop pop} ifelse
  exch FMS} bdef
/csm {1 dpi2point div -1 dpi2point div scale neg translate
 dup landscapeMode eq {pop -90 rotate}
  {rotateMode eq {90 rotate} if} ifelse} bdef
% line types: solid, dotted, dashed, dotdash
/SO { [] 0 setdash } bdef
/DO { [.5 dpi2point mul 4 dpi2point mul] 0 setdash } bdef
/DA { [6 dpi2point mul] 0 setdash } bdef
/DD { [.5 dpi2point mul 4 dpi2point mul 6 dpi2point mul 4
  dpi2point mul] 0 setdash } bdef
% macros for lines and objects
/L {lineto stroke} bdef
/MP {3 1 roll moveto 1 sub {rlineto} repeat} bdef
/AP {{rlineto} repeat} bdef
/PDlw -1 def
/W {/PDlw currentlinewidth def setlinewidth} def
/PP {closepath eofill} bdef
/DP {closepath stroke} bdef
/MR {4 -2 roll moveto dup  0 exch rlineto exch 0 rlineto
  neg 0 exch rlineto closepath} bdef
/FR {MR stroke} bdef
/PR {MR fill} bdef
/L1i {{currentfile picstr readhexstring pop} image} bdef
/tMatrix matrix def
/MakeOval {newpath tMatrix currentmatrix pop translate scale
0 0 1 0 360 arc tMatrix setmatrix} bdef
/FO {MakeOval stroke} bdef
/PO {MakeOval fill} bdef
/PD {currentlinewidth 2 div 0 360 arc fill
   PDlw -1 eq not {PDlw w /PDlw -1 def} if} def
/FA {newpath tMatrix currentmatrix pop translate scale
  0 0 1 5 -2 roll arc tMatrix setmatrix stroke} bdef
/PA {newpath tMatrix currentmatrix pop	translate 0 0 moveto scale
  0 0 1 5 -2 roll arc closepath tMatrix setmatrix fill} bdef
/FAn {newpath tMatrix currentmatrix pop translate scale
  0 0 1 5 -2 roll arcn tMatrix setmatrix stroke} bdef
/PAn {newpath tMatrix currentmatrix pop translate 0 0 moveto scale
  0 0 1 5 -2 roll arcn closepath tMatrix setmatrix fill} bdef
/vradius 0 def /hradius 0 def /lry 0 def
/lrx 0 def /uly 0 def /ulx 0 def /rad 0 def
/MRR {/vradius xdef /hradius xdef /lry xdef /lrx xdef /uly xdef
  /ulx xdef newpath tMatrix currentmatrix pop ulx hradius add uly
  vradius add translate hradius vradius scale 0 0 1 180 270 arc 
  tMatrix setmatrix lrx hradius sub uly vradius add translate
  hradius vradius scale 0 0 1 270 360 arc tMatrix setmatrix
  lrx hradius sub lry vradius sub translate hradius vradius scale
  0 0 1 0 90 arc tMatrix setmatrix ulx hradius add lry vradius sub
  translate hradius vradius scale 0 0 1 90 180 arc tMatrix setmatrix
  closepath} bdef
/FRR {MRR stroke } bdef
/PRR {MRR fill } bdef
/MlrRR {/lry xdef /lrx xdef /uly xdef /ulx xdef /rad lry uly sub 2 div def
  newpath tMatrix currentmatrix pop ulx rad add uly rad add translate
  rad rad scale 0 0 1 90 270 arc tMatrix setmatrix lrx rad sub lry rad
  sub translate rad rad scale 0 0 1 270 90 arc tMatrix setmatrix
  closepath} bdef
/FlrRR {MlrRR stroke } bdef
/PlrRR {MlrRR fill } bdef
/MtbRR {/lry xdef /lrx xdef /uly xdef /ulx xdef /rad lrx ulx sub 2 div def
  newpath tMatrix currentmatrix pop ulx rad add uly rad add translate
  rad rad scale 0 0 1 180 360 arc tMatrix setmatrix lrx rad sub lry rad
  sub translate rad rad scale 0 0 1 0 180 arc tMatrix setmatrix
  closepath} bdef
/FtbRR {MtbRR stroke } bdef
/PtbRR {MtbRR fill } bdef
/stri 6 array def /dtri 6 array def
/smat 6 array def /dmat 6 array def
/tmat1 6 array def /tmat2 6 array def /dif 3 array def
/asub {/ind2 exch def /ind1 exch def dup dup
  ind1 get exch ind2 get sub exch } bdef
/tri_to_matrix {
  2 0 asub 3 1 asub 4 0 asub 5 1 asub
  dup 0 get exch 1 get 7 -1 roll astore } bdef
/compute_transform {
  dmat dtri tri_to_matrix tmat1 invertmatrix 
  smat stri tri_to_matrix tmat2 concatmatrix } bdef
/ds {stri astore pop} bdef
/dt {dtri astore pop} bdef
/db {2 copy /cols xdef /rows xdef mul dup 3 mul string
  currentfile 
  3 index 0 eq {/ASCIIHexDecode filter}
  {/ASCII85Decode filter 3 index 2 eq {/RunLengthDecode filter} if }
  ifelse exch readstring pop
  dup 0 3 index getinterval /rbmap xdef
  dup 2 index dup getinterval /gbmap xdef
  1 index dup 2 mul exch getinterval /bbmap xdef pop pop}bdef
/it {gs np dtri aload pop moveto lineto lineto cp c
  cols rows 8 compute_transform 
  rbmap gbmap bbmap true 3 colorimage gr}bdef
/il {newpath moveto lineto stroke}bdef
currentdict end def
%%EndProlog

%%BeginSetup
MathWorks begin

0 cap

end
%%EndSetup

%%Page: 1 1
%%BeginPageSetup
%%PageBoundingBox:    34   191   564   613
MathWorks begin
bpage
%%EndPageSetup

%%BeginObject: obj1
bplot

/dpi2point 12 def
portraitMode 0216 7344 csm

  202   -22  6359  5068 rc
87 dict begin %Colortable dictionary
/c0 { 0.000000 0.000000 0.000000 sr} bdef
/c1 { 1.000000 1.000000 1.000000 sr} bdef
/c2 { 0.900000 0.000000 0.000000 sr} bdef
/c3 { 0.000000 0.820000 0.000000 sr} bdef
/c4 { 0.000000 0.000000 0.800000 sr} bdef
/c5 { 0.910000 0.820000 0.320000 sr} bdef
/c6 { 1.000000 0.260000 0.820000 sr} bdef
/c7 { 0.000000 0.820000 0.820000 sr} bdef
c0
1 j
1 sg
   0    0 6914 5188 rf
6 w
0 4227 5357 0 0 -4227 899 4616 4 MP
PP
-5357 0 0 4227 5357 0 0 -4227 899 4616 5 MP stroke
4 w
DO
SO
6 w
0 sg
 899 4616 mt 6256 4616 L
 899  389 mt 6256  389 L
 899 4616 mt  899  389 L
6256 4616 mt 6256  389 L
 899 4616 mt 6256 4616 L
 899 4616 mt  899  389 L
 899 4616 mt  899 4589 L
 899  389 mt  899  415 L
 899 4616 mt  899 4562 L
 899  389 mt  899  442 L
%%IncludeResource: font Helvetica
/Helvetica /ISOLatin1Encoding 168 FMSR

 853 4806 mt 
(2) s
1386 4616 mt 1386 4589 L
1386  389 mt 1386  415 L
1386 4616 mt 1386 4589 L
1386  389 mt 1386  415 L
1386 4616 mt 1386 4589 L
1386  389 mt 1386  415 L
1386 4616 mt 1386 4589 L
1386  389 mt 1386  415 L
1386 4616 mt 1386 4589 L
1386  389 mt 1386  415 L
1386 4616 mt 1386 4589 L
1386  389 mt 1386  415 L
1386 4616 mt 1386 4589 L
1386  389 mt 1386  415 L
1386 4616 mt 1386 4589 L
1386  389 mt 1386  415 L
1386 4616 mt 1386 4589 L
1386  389 mt 1386  415 L
1386 4616 mt 1386 4562 L
1386  389 mt 1386  442 L
1340 4806 mt 
(4) s
1873 4616 mt 1873 4589 L
1873  389 mt 1873  415 L
1873 4616 mt 1873 4589 L
1873  389 mt 1873  415 L
1873 4616 mt 1873 4589 L
1873  389 mt 1873  415 L
1873 4616 mt 1873 4589 L
1873  389 mt 1873  415 L
1873 4616 mt 1873 4589 L
1873  389 mt 1873  415 L
1873 4616 mt 1873 4589 L
1873  389 mt 1873  415 L
1873 4616 mt 1873 4589 L
1873  389 mt 1873  415 L
1873 4616 mt 1873 4589 L
1873  389 mt 1873  415 L
1873 4616 mt 1873 4589 L
1873  389 mt 1873  415 L
1873 4616 mt 1873 4562 L
1873  389 mt 1873  442 L
1827 4806 mt 
(8) s
2360 4616 mt 2360 4589 L
2360  389 mt 2360  415 L
2360 4616 mt 2360 4589 L
2360  389 mt 2360  415 L
2360 4616 mt 2360 4589 L
2360  389 mt 2360  415 L
2360 4616 mt 2360 4589 L
2360  389 mt 2360  415 L
2360 4616 mt 2360 4589 L
2360  389 mt 2360  415 L
2360 4616 mt 2360 4589 L
2360  389 mt 2360  415 L
2360 4616 mt 2360 4589 L
2360  389 mt 2360  415 L
2360 4616 mt 2360 4589 L
2360  389 mt 2360  415 L
2360 4616 mt 2360 4589 L
2360  389 mt 2360  415 L
2360 4616 mt 2360 4562 L
2360  389 mt 2360  442 L
2267 4806 mt 
(16) s
2847 4616 mt 2847 4589 L
2847  389 mt 2847  415 L
2847 4616 mt 2847 4589 L
2847  389 mt 2847  415 L
2847 4616 mt 2847 4589 L
2847  389 mt 2847  415 L
2847 4616 mt 2847 4589 L
2847  389 mt 2847  415 L
2847 4616 mt 2847 4589 L
2847  389 mt 2847  415 L
2847 4616 mt 2847 4589 L
2847  389 mt 2847  415 L
2847 4616 mt 2847 4589 L
2847  389 mt 2847  415 L
2847 4616 mt 2847 4589 L
2847  389 mt 2847  415 L
2847 4616 mt 2847 4589 L
2847  389 mt 2847  415 L
2847 4616 mt 2847 4562 L
2847  389 mt 2847  442 L
2754 4806 mt 
(32) s
3334 4616 mt 3334 4589 L
3334  389 mt 3334  415 L
3334 4616 mt 3334 4589 L
3334  389 mt 3334  415 L
3334 4616 mt 3334 4589 L
3334  389 mt 3334  415 L
3334 4616 mt 3334 4589 L
3334  389 mt 3334  415 L
3334 4616 mt 3334 4589 L
3334  389 mt 3334  415 L
3334 4616 mt 3334 4589 L
3334  389 mt 3334  415 L
3334 4616 mt 3334 4589 L
3334  389 mt 3334  415 L
3334 4616 mt 3334 4589 L
3334  389 mt 3334  415 L
3334 4616 mt 3334 4589 L
3334  389 mt 3334  415 L
3334 4616 mt 3334 4562 L
3334  389 mt 3334  442 L
3241 4806 mt 
(64) s
3821 4616 mt 3821 4589 L
3821  389 mt 3821  415 L
3821 4616 mt 3821 4589 L
3821  389 mt 3821  415 L
3821 4616 mt 3821 4589 L
3821  389 mt 3821  415 L
3821 4616 mt 3821 4589 L
3821  389 mt 3821  415 L
3821 4616 mt 3821 4589 L
3821  389 mt 3821  415 L
3821 4616 mt 3821 4589 L
3821  389 mt 3821  415 L
3821 4616 mt 3821 4589 L
3821  389 mt 3821  415 L
3821 4616 mt 3821 4589 L
3821  389 mt 3821  415 L
3821 4616 mt 3821 4589 L
3821  389 mt 3821  415 L
3821 4616 mt 3821 4562 L
3821  389 mt 3821  442 L
3681 4806 mt 
(128) s
4308 4616 mt 4308 4589 L
4308  389 mt 4308  415 L
4308 4616 mt 4308 4589 L
4308  389 mt 4308  415 L
4308 4616 mt 4308 4589 L
4308  389 mt 4308  415 L
4308 4616 mt 4308 4589 L
4308  389 mt 4308  415 L
4308 4616 mt 4308 4589 L
4308  389 mt 4308  415 L
4308 4616 mt 4308 4589 L
4308  389 mt 4308  415 L
4308 4616 mt 4308 4589 L
4308  389 mt 4308  415 L
4308 4616 mt 4308 4589 L
4308  389 mt 4308  415 L
4308 4616 mt 4308 4589 L
4308  389 mt 4308  415 L
4308 4616 mt 4308 4562 L
4308  389 mt 4308  442 L
4168 4806 mt 
(256) s
4795 4616 mt 4795 4589 L
4795  389 mt 4795  415 L
4795 4616 mt 4795 4589 L
4795  389 mt 4795  415 L
4795 4616 mt 4795 4589 L
4795  389 mt 4795  415 L
4795 4616 mt 4795 4589 L
4795  389 mt 4795  415 L
4795 4616 mt 4795 4589 L
4795  389 mt 4795  415 L
4795 4616 mt 4795 4589 L
4795  389 mt 4795  415 L
4795 4616 mt 4795 4589 L
4795  389 mt 4795  415 L
4795 4616 mt 4795 4589 L
4795  389 mt 4795  415 L
4795 4616 mt 4795 4589 L
4795  389 mt 4795  415 L
4795 4616 mt 4795 4562 L
4795  389 mt 4795  442 L
4655 4806 mt 
(512) s
5282 4616 mt 5282 4589 L
5282  389 mt 5282  415 L
5282 4616 mt 5282 4589 L
5282  389 mt 5282  415 L
5282 4616 mt 5282 4589 L
5282  389 mt 5282  415 L
5282 4616 mt 5282 4589 L
5282  389 mt 5282  415 L
5282 4616 mt 5282 4589 L
5282  389 mt 5282  415 L
5282 4616 mt 5282 4589 L
5282  389 mt 5282  415 L
5282 4616 mt 5282 4589 L
5282  389 mt 5282  415 L
5282 4616 mt 5282 4589 L
5282  389 mt 5282  415 L
5282 4616 mt 5282 4589 L
5282  389 mt 5282  415 L
5282 4616 mt 5282 4562 L
5282  389 mt 5282  442 L
5096 4806 mt 
(1024) s
5769 4616 mt 5769 4589 L
5769  389 mt 5769  415 L
5769 4616 mt 5769 4589 L
5769  389 mt 5769  415 L
5769 4616 mt 5769 4589 L
5769  389 mt 5769  415 L
5769 4616 mt 5769 4589 L
5769  389 mt 5769  415 L
5769 4616 mt 5769 4589 L
5769  389 mt 5769  415 L
5769 4616 mt 5769 4589 L
5769  389 mt 5769  415 L
5769 4616 mt 5769 4589 L
5769  389 mt 5769  415 L
5769 4616 mt 5769 4589 L
5769  389 mt 5769  415 L
5769 4616 mt 5769 4589 L
5769  389 mt 5769  415 L
5769 4616 mt 5769 4562 L
5769  389 mt 5769  442 L
5583 4806 mt 
(2048) s
6256 4616 mt 6256 4589 L
6256  389 mt 6256  415 L
6256 4616 mt 6256 4589 L
6256  389 mt 6256  415 L
6256 4616 mt 6256 4589 L
6256  389 mt 6256  415 L
6256 4616 mt 6256 4589 L
6256  389 mt 6256  415 L
6256 4616 mt 6256 4589 L
6256  389 mt 6256  415 L
6256 4616 mt 6256 4589 L
6256  389 mt 6256  415 L
6256 4616 mt 6256 4589 L
6256  389 mt 6256  415 L
6256 4616 mt 6256 4589 L
6256  389 mt 6256  415 L
6256 4616 mt 6256 4589 L
6256  389 mt 6256  415 L
6256 4616 mt 6256 4562 L
6256  389 mt 6256  442 L
6070 4806 mt 
(4096) s
 899 4126 mt  925 4126 L
6256 4126 mt 6229 4126 L
 899 4153 mt  925 4153 L
6256 4153 mt 6229 4153 L
 899 4183 mt  925 4183 L
6256 4183 mt 6229 4183 L
 899 4216 mt  925 4216 L
6256 4216 mt 6229 4216 L
 899 4255 mt  925 4255 L
6256 4255 mt 6229 4255 L
 899 4301 mt  925 4301 L
6256 4301 mt 6229 4301 L
 899 4357 mt  925 4357 L
6256 4357 mt 6229 4357 L
 899 4429 mt  925 4429 L
6256 4429 mt 6229 4429 L
 899 4531 mt  925 4531 L
6256 4531 mt 6229 4531 L
 899 4126 mt  952 4126 L
6256 4126 mt 6202 4126 L
 551 4188 mt 
(10) s
%%IncludeResource: font Helvetica
/Helvetica /ISOLatin1Encoding 112 FMSR

 737 4084 mt 
(-7) s
 899 3952 mt  925 3952 L
6256 3952 mt 6229 3952 L
 899 3850 mt  925 3850 L
6256 3850 mt 6229 3850 L
 899 3778 mt  925 3778 L
6256 3778 mt 6229 3778 L
 899 3722 mt  925 3722 L
6256 3722 mt 6229 3722 L
 899 3676 mt  925 3676 L
6256 3676 mt 6229 3676 L
 899 3637 mt  925 3637 L
6256 3637 mt 6229 3637 L
 899 3604 mt  925 3604 L
6256 3604 mt 6229 3604 L
 899 3574 mt  925 3574 L
6256 3574 mt 6229 3574 L
 899 3548 mt  925 3548 L
6256 3548 mt 6229 3548 L
 899 3548 mt  952 3548 L
6256 3548 mt 6202 3548 L
%%IncludeResource: font Helvetica
/Helvetica /ISOLatin1Encoding 168 FMSR

 551 3610 mt 
(10) s
%%IncludeResource: font Helvetica
/Helvetica /ISOLatin1Encoding 112 FMSR

 737 3506 mt 
(-6) s
 899 3374 mt  925 3374 L
6256 3374 mt 6229 3374 L
 899 3272 mt  925 3272 L
6256 3272 mt 6229 3272 L
 899 3199 mt  925 3199 L
6256 3199 mt 6229 3199 L
 899 3143 mt  925 3143 L
6256 3143 mt 6229 3143 L
 899 3097 mt  925 3097 L
6256 3097 mt 6229 3097 L
 899 3059 mt  925 3059 L
6256 3059 mt 6229 3059 L
 899 3025 mt  925 3025 L
6256 3025 mt 6229 3025 L
 899 2996 mt  925 2996 L
6256 2996 mt 6229 2996 L
 899 2969 mt  925 2969 L
6256 2969 mt 6229 2969 L
 899 2969 mt  952 2969 L
6256 2969 mt 6202 2969 L
%%IncludeResource: font Helvetica
/Helvetica /ISOLatin1Encoding 168 FMSR

 551 3031 mt 
(10) s
%%IncludeResource: font Helvetica
/Helvetica /ISOLatin1Encoding 112 FMSR

 737 2927 mt 
(-5) s
 899 2795 mt  925 2795 L
6256 2795 mt 6229 2795 L
 899 2693 mt  925 2693 L
6256 2693 mt 6229 2693 L
 899 2621 mt  925 2621 L
6256 2621 mt 6229 2621 L
 899 2565 mt  925 2565 L
6256 2565 mt 6229 2565 L
 899 2519 mt  925 2519 L
6256 2519 mt 6229 2519 L
 899 2480 mt  925 2480 L
6256 2480 mt 6229 2480 L
 899 2447 mt  925 2447 L
6256 2447 mt 6229 2447 L
 899 2417 mt  925 2417 L
6256 2417 mt 6229 2417 L
 899 2390 mt  925 2390 L
6256 2390 mt 6229 2390 L
 899 2390 mt  952 2390 L
6256 2390 mt 6202 2390 L
%%IncludeResource: font Helvetica
/Helvetica /ISOLatin1Encoding 168 FMSR

 551 2452 mt 
(10) s
%%IncludeResource: font Helvetica
/Helvetica /ISOLatin1Encoding 112 FMSR

 737 2348 mt 
(-4) s
 899 2216 mt  925 2216 L
6256 2216 mt 6229 2216 L
 899 2114 mt  925 2114 L
6256 2114 mt 6229 2114 L
 899 2042 mt  925 2042 L
6256 2042 mt 6229 2042 L
 899 1986 mt  925 1986 L
6256 1986 mt 6229 1986 L
 899 1940 mt  925 1940 L
6256 1940 mt 6229 1940 L
 899 1901 mt  925 1901 L
6256 1901 mt 6229 1901 L
 899 1868 mt  925 1868 L
6256 1868 mt 6229 1868 L
 899 1838 mt  925 1838 L
6256 1838 mt 6229 1838 L
 899 1812 mt  925 1812 L
6256 1812 mt 6229 1812 L
 899 1812 mt  952 1812 L
6256 1812 mt 6202 1812 L
%%IncludeResource: font Helvetica
/Helvetica /ISOLatin1Encoding 168 FMSR

 551 1874 mt 
(10) s
%%IncludeResource: font Helvetica
/Helvetica /ISOLatin1Encoding 112 FMSR

 737 1770 mt 
(-3) s
 899 1638 mt  925 1638 L
6256 1638 mt 6229 1638 L
 899 1536 mt  925 1536 L
6256 1536 mt 6229 1536 L
 899 1463 mt  925 1463 L
6256 1463 mt 6229 1463 L
 899 1407 mt  925 1407 L
6256 1407 mt 6229 1407 L
 899 1362 mt  925 1362 L
6256 1362 mt 6229 1362 L
 899 1323 mt  925 1323 L
6256 1323 mt 6229 1323 L
 899 1289 mt  925 1289 L
6256 1289 mt 6229 1289 L
 899 1260 mt  925 1260 L
6256 1260 mt 6229 1260 L
 899 1233 mt  925 1233 L
6256 1233 mt 6229 1233 L
 899 1233 mt  952 1233 L
6256 1233 mt 6202 1233 L
%%IncludeResource: font Helvetica
/Helvetica /ISOLatin1Encoding 168 FMSR

 551 1295 mt 
(10) s
%%IncludeResource: font Helvetica
/Helvetica /ISOLatin1Encoding 112 FMSR

 737 1191 mt 
(-2) s
 899 1059 mt  925 1059 L
6256 1059 mt 6229 1059 L
 899  957 mt  925  957 L
6256  957 mt 6229  957 L
 899  885 mt  925  885 L
6256  885 mt 6229  885 L
 899  829 mt  925  829 L
6256  829 mt 6229  829 L
 899  783 mt  925  783 L
6256  783 mt 6229  783 L
 899  744 mt  925  744 L
6256  744 mt 6229  744 L
 899  711 mt  925  711 L
6256  711 mt 6229  711 L
 899  681 mt  925  681 L
6256  681 mt 6229  681 L
 899  654 mt  925  654 L
6256  654 mt 6229  654 L
 899  654 mt  952  654 L
6256  654 mt 6202  654 L
%%IncludeResource: font Helvetica
/Helvetica /ISOLatin1Encoding 168 FMSR

 551  716 mt 
(10) s
%%IncludeResource: font Helvetica
/Helvetica /ISOLatin1Encoding 112 FMSR

 737  612 mt 
(-1) s
 899  480 mt  925  480 L
6256  480 mt 6229  480 L
 899 4616 mt 6256 4616 L
 899  389 mt 6256  389 L
 899 4616 mt  899  389 L
6256 4616 mt 6256  389 L
gs 899 389 5358 4228 rc
DD
36 w
/c8 { 0.000000 1.000000 0.000000 sr} bdef
c8
487 175 487 176 487 181 487 195 4308 2579 5 MP stroke
gr

36 w
c8
DD
SO
  36   36 4308 2579 FO
  36   36 4795 2774 FO
  36   36 5282 2955 FO
  36   36 5769 3131 FO
  36   36 6256 3306 FO
DD
gs 899 389 5358 4228 rc
/c9 { 1.000000 0.000000 1.000000 sr} bdef
c9
487 331 487 347 487 348 487 349 487 348 487 349 487 349 487 351 
487 351 487 359 487 378 899 563 12 MP stroke
gr

c9
SO
0 j
0 -58 -58 0 0 58 58 0 870 534 5 MP
DP
0 -58 -58 0 0 58 58 0 1357 912 5 MP
DP
0 -58 -58 0 0 58 58 0 1844 1271 5 MP
DP
0 -58 -58 0 0 58 58 0 2331 1622 5 MP
DP
0 -58 -58 0 0 58 58 0 2818 1973 5 MP
DP
0 -58 -58 0 0 58 58 0 3305 2322 5 MP
DP
0 -58 -58 0 0 58 58 0 3792 2671 5 MP
DP
0 -58 -58 0 0 58 58 0 4279 3019 5 MP
DP
0 -58 -58 0 0 58 58 0 4766 3368 5 MP
DP
0 -58 -58 0 0 58 58 0 5253 3716 5 MP
DP
0 -58 -58 0 0 58 58 0 5740 4063 5 MP
DP
0 -58 -58 0 0 58 58 0 6227 4394 5 MP
DP
DD
gs 899 389 5358 4228 rc
/c10 { 0.000000 0.000000 1.000000 sr} bdef
c10
487 168 487 160 487 141 487 81 4308 1565 5 MP stroke
gr

c10
SO
36 47 -36 47 -36 -47 36 -47 4308 1612 5 MP
DP
36 47 -36 47 -36 -47 36 -47 4795 1693 5 MP
DP
36 47 -36 47 -36 -47 36 -47 5282 1834 5 MP
DP
36 47 -36 47 -36 -47 36 -47 5769 1994 5 MP
DP
36 47 -36 47 -36 -47 36 -47 6256 2162 5 MP
DP
DD
gs 899 389 5358 4228 rc
DO
0 sg
487 348 487 348 487 349 487 348 487 348 487 349 487 348 487 349 
487 348 487 348 487 349 899 424 12 MP stroke
c10
487 174 487 174 487 174 487 175 487 174 487 174 487 174 487 174 
487 175 487 174 100 35 1286 389 12 MP stroke
gr

DO
0 sg
%%IncludeResource: font Helvetica
/Helvetica /ISOLatin1Encoding 168 FMSR

2815 4984 mt 
(N cells in X direction) s
 383 2755 mt  -90 rotate
(|.|) s
90 rotate
%%IncludeResource: font Helvetica
/Helvetica /ISOLatin1Encoding 132 FMSR

 467 2621 mt  -90 rotate
(infinity) s
90 rotate
%%IncludeResource: font Helvetica
/Helvetica /ISOLatin1Encoding 168 FMSR

 665  257 mt 
(1 F-cycle w/ V\(2,2\) cycles, Laplacian, u=\(x) s
%%IncludeResource: font Helvetica
/Helvetica /ISOLatin1Encoding 132 FMSR

3847  173 mt 
(4) s
%%IncludeResource: font Helvetica
/Helvetica /ISOLatin1Encoding 168 FMSR

3920  257 mt 
( - L) s
%%IncludeResource: font Helvetica
/Helvetica /ISOLatin1Encoding 132 FMSR

4204  173 mt 
(2) s
%%IncludeResource: font Helvetica
/Helvetica /ISOLatin1Encoding 168 FMSR

4277  257 mt 
( x) s
%%IncludeResource: font Helvetica
/Helvetica /ISOLatin1Encoding 132 FMSR

4407  173 mt 
(2) s
%%IncludeResource: font Helvetica
/Helvetica /ISOLatin1Encoding 168 FMSR

4480  257 mt 
(\), L=\(2,1,1\), 128) s
%%IncludeResource: font Helvetica
/Helvetica /ISOLatin1Encoding 132 FMSR

5680  173 mt 
(3) s
%%IncludeResource: font Helvetica
/Helvetica /ISOLatin1Encoding 168 FMSR

5753  257 mt 
( cells/core) s
 876 4677 mt 
( ) s
6234  449 mt 
( ) s
SO
6 w
1 sg
0 1047 1584 0 0 -1047 959 4558 4 MP
PP
-1584 0 0 1047 1584 0 0 -1047 959 4558 5 MP stroke
4 w
DO
SO
6 w
0 sg
 959 4558 mt 2543 4558 L
 959 3511 mt 2543 3511 L
 959 4558 mt  959 3511 L
2543 4558 mt 2543 3511 L
 959 4558 mt 2543 4558 L
 959 4558 mt  959 3511 L
 959 4558 mt 2543 4558 L
 959 3511 mt 2543 3511 L
 959 4558 mt  959 3511 L
2543 4558 mt 2543 3511 L
1451 3691 mt 
(Residual) s
gs 959 3511 1585 1048 rc
DD
36 w
c8
379 0 1034 3630 2 MP stroke
SO
gs 1113 3520 221 221 rc
  36   36 1223 3630 FO
gr

gr

36 w
c8
0 sg
1451 3893 mt 
(SR - Error) s
gs 959 3511 1585 1048 rc
DD
c9
379 0 1034 3832 2 MP stroke
SO
gs 1113 3722 221 221 rc
0 -58 -58 0 0 58 58 0 1194 3803 5 MP
DP
gr

gr

c9
0 sg
1451 4095 mt 
(SR - Residual) s
gs 959 3511 1585 1048 rc
DD
c10
379 0 1034 4034 2 MP stroke
SO
gs 1113 3924 221 221 rc
36 47 -36 47 -36 -47 36 -47 1223 4081 5 MP
DP
gr

gr

c10
0 sg
1451 4297 mt 
(Quadradic) s
gs 959 3511 1585 1048 rc
DO
379 0 1034 4236 2 MP stroke
SO
gr

1451 4499 mt 
(Linear) s
gs 959 3511 1585 1048 rc
DO
c10
379 0 1034 4438 2 MP stroke
SO
6 w
gr

6 w
c10

end %%Color Dict

eplot
%%EndObject

epage
end

showpage

%%Trailer
%%EOF
